uart_cont_tb.vcd
$date
  Tue Apr 20 12:04:02 2021
$end
$version
  GHDL v0
$end
$timescale
  1 fs
$end
$scope module standard $end
$upscope $end
$scope module std_logic_1164 $end
$upscope $end
$scope module numeric_std $end
$upscope $end
$scope module uart_cont_tb $end
$var reg 1 ! clock $end
$var reg 4 " cont_out[3:0] $end
$var reg 1 # rst $end
$var reg 1 $ rxd $end
$scope module dut $end
$var reg 1 % clk_pin $end
$var reg 1 & rst_pin $end
$var reg 1 ' rxd_pin $end
$var reg 4 ( cont_pins[3:0] $end
$var reg 8 ) rx_data[7:0] $end
$var reg 1 * rx_data_rdy $end
$scope module uart_rx_i0 $end
$var reg 1 + clk_rx $end
$var reg 1 , rst_clk_rx $end
$var reg 1 - rxd_i $end
$var reg 1 . rxd_clk_rx $end
$var reg 8 / rx_data[7:0] $end
$var reg 1 0 rx_data_rdy $end
$var reg 1 1 frm_err $end
$var reg 1 2 baud_x16_en $end
$var reg 1 3 rxd_clk_rx_aux $end
$scope module meta_harden_rxd_i0 $end
$var reg 1 4 clk_dst $end
$var reg 1 5 rst_dst $end
$var reg 1 6 signal_src $end
$var reg 1 7 signal_dst $end
$var reg 1 8 signal_meta $end
$upscope $end
$scope module uart_baud_gen_rx_i0 $end
$var reg 1 9 clk $end
$var reg 1 : rst $end
$var reg 1 ; baud_x16_en $end
$var reg 5 < internal_count[4:0] $end
$var reg 1 = baud_x16_en_reg $end
$var reg 5 > internal_count_m_1[4:0] $end
$upscope $end
$scope module uart_rx_ctl_i0 $end
$var reg 1 ? clk_rx $end
$var reg 1 @ rst_clk_rx $end
$var reg 1 A baud_x16_en $end
$var reg 1 B rxd_clk_rx $end
$var reg 8 C rx_data[7:0] $end
$var reg 1 D rx_data_rdy $end
$var reg 1 E frm_err $end
$var reg 2 F state[1:0] $end
$var reg 4 G over_sample_cnt[3:0] $end
$var reg 3 H bit_cnt[2:0] $end
$var reg 1 I over_sample_cnt_done $end
$var reg 1 J bit_cnt_done $end
$upscope $end
$upscope $end
$scope module inst_contnb_ctl_i0 $end
$var reg 1 K clk_i $end
$var reg 8 L rx_data[7:0] $end
$var reg 1 M rx_data_rdy $end
$var reg 4 N count_o[3:0] $end
$var reg 1 O old_rx_data_rdy $end
$var reg 8 P char_data[7:0] $end
$var reg 1 Q rst $end
$var reg 1 R asc $end
$var reg 1 S ena $end
$scope module inst_contnb $end
$var reg 1 T clk_i $end
$var reg 1 U rst_i $end
$var reg 1 V ena_i $end
$var reg 1 W asc_i $end
$var reg 4 X q[3:0] $end
$var reg 4 Y aux[3:0] $end
$upscope $end
$upscope $end
$upscope $end
$upscope $end
$enddefinitions $end
#0
0!
bUUUU "
0#
0$
0%
0&
0'
bUUUU (
bUUUUUUUU )
U*
0+
0,
0-
U.
bUUUUUUUU /
U0
U1
U2
U3
04
05
06
U7
U8
09
0:
U;
bUUUUU <
U=
bXXXXX >
0?
0@
UA
UB
bUUUUUUUU C
UD
UE
bUU F
bUUUU G
bUUU H
0I
0J
0K
bUUUUUUUU L
UM
bUUUU N
UO
bUUUUUUUU P
UQ
UR
US
0T
UU
UV
UW
bUUUU X
bUUUU Y
#10000000
1!
1%
1+
02
14
08
19
0;
bXXXXX <
0=
1?
0A
1K
1T
#20000000
0!
0%
0+
04
09
0?
0K
0T
#30000000
1!
1%
1+
0.
03
14
07
19
1?
0B
1K
1T
#40000000
0!
0%
0+
04
09
0?
0K
0T
#50000000
1!
1%
1+
14
19
1?
1K
1T
#60000000
0!
0%
0+
04
09
0?
0K
0T
#70000000
1!
1%
1+
14
19
1?
1K
1T
#80000000
0!
0%
0+
04
09
0?
0K
0T
#90000000
1!
1%
1+
14
19
1?
1K
1T
#100000000
0!
1#
1$
0%
1&
1'
0+
1,
1-
04
15
16
09
1:
0?
1@
0K
0T
#110000000
1!
1%
b00000000 )
0*
1+
b00000000 /
00
01
14
19
b11010 <
b11001 >
1?
b00000000 C
0D
0E
b00 F
b0000 G
b000 H
1I
1K
b00000000 L
0M
1T
#120000000
0!
0#
0%
0&
0+
0,
04
05
09
0:
0?
0@
0K
0T
#130000000
1!
1%
1+
14
18
19
b11001 <
b11000 >
1?
1K
0O
1T
#140000000
0!
0%
0+
04
09
0?
0K
0T
#150000000
1!
1%
1+
1.
13
14
17
19
b11000 <
b10111 >
1?
1B
1K
1T
#160000000
0!
0%
0+
04
09
0?
0K
0T
#170000000
1!
1%
1+
14
19
b10111 <
b10110 >
1?
1K
1T
#180000000
0!
0%
0+
04
09
0?
0K
0T
#190000000
1!
1%
1+
14
19
b10110 <
b10101 >
1?
1K
1T
#200000000
0!
0%
0+
04
09
0?
0K
0T
#210000000
1!
1%
1+
14
19
b10101 <
b10100 >
1?
1K
1T
#220000000
0!
0%
0+
04
09
0?
0K
0T
#230000000
1!
1%
1+
14
19
b10100 <
b10011 >
1?
1K
1T
#240000000
0!
0%
0+
04
09
0?
0K
0T
#250000000
1!
1%
1+
14
19
b10011 <
b10010 >
1?
1K
1T
#260000000
0!
0%
0+
04
09
0?
0K
0T
#270000000
1!
1%
1+
14
19
b10010 <
b10001 >
1?
1K
1T
#280000000
0!
0%
0+
04
09
0?
0K
0T
#290000000
1!
1%
1+
14
19
b10001 <
b10000 >
1?
1K
1T
#300000000
0!
0%
0+
04
09
0?
0K
0T
#310000000
1!
1%
1+
14
19
b10000 <
b01111 >
1?
1K
1T
#320000000
0!
0$
0%
0'
0+
0-
04
06
09
0?
0K
0T
#330000000
1!
1%
1+
14
08
19
b01111 <
b01110 >
1?
1K
1T
#340000000
0!
0%
0+
04
09
0?
0K
0T
#350000000
1!
1%
1+
0.
03
14
07
19
b01110 <
b01101 >
1?
0B
1K
1T
#360000000
0!
0%
0+
04
09
0?
0K
0T
#370000000
1!
1%
1+
14
19
b01101 <
b01100 >
1?
1K
1T
#380000000
0!
0%
0+
04
09
0?
0K
0T
#390000000
1!
1%
1+
14
19
b01100 <
b01011 >
1?
1K
1T
#400000000
0!
0%
0+
04
09
0?
0K
0T
#410000000
1!
1%
1+
14
19
b01011 <
b01010 >
1?
1K
1T
#420000000
0!
0%
0+
04
09
0?
0K
0T
#430000000
1!
1%
1+
14
19
b01010 <
b01001 >
1?
1K
1T
#440000000
0!
0%
0+
04
09
0?
0K
0T
#450000000
1!
1%
1+
14
19
b01001 <
b01000 >
1?
1K
1T
#460000000
0!
0%
0+
04
09
0?
0K
0T
#470000000
1!
1%
1+
14
19
b01000 <
b00111 >
1?
1K
1T
#480000000
0!
0%
0+
04
09
0?
0K
0T
#490000000
1!
1%
1+
14
19
b00111 <
b00110 >
1?
1K
1T
#500000000
0!
0%
0+
04
09
0?
0K
0T
#510000000
1!
1%
1+
14
19
b00110 <
b00101 >
1?
1K
1T
#520000000
0!
1$
0%
1'
0+
1-
04
16
09
0?
0K
0T
#530000000
1!
1%
1+
14
18
19
b00101 <
b00100 >
1?
1K
1T
#540000000
0!
0%
0+
04
09
0?
0K
0T
#550000000
1!
1%
1+
1.
13
14
17
19
b00100 <
b00011 >
1?
1B
1K
1T
#560000000
0!
0%
0+
04
09
0?
0K
0T
#570000000
1!
1%
1+
14
19
b00011 <
b00010 >
1?
1K
1T
#580000000
0!
0%
0+
04
09
0?
0K
0T
#590000000
1!
1%
1+
14
19
b00010 <
b00001 >
1?
1K
1T
#600000000
0!
0%
0+
04
09
0?
0K
0T
#610000000
1!
1%
1+
14
19
b00001 <
b00000 >
1?
1K
1T
#620000000
0!
0%
0+
04
09
0?
0K
0T
#630000000
1!
1%
1+
12
14
19
1;
b00000 <
1=
b11111 >
1?
1A
1K
1T
#640000000
0!
0%
0+
04
09
0?
0K
0T
#650000000
1!
1%
1+
02
14
19
0;
b11010 <
0=
b11001 >
1?
0A
1K
1T
#660000000
0!
0%
0+
04
09
0?
0K
0T
#670000000
1!
1%
1+
14
19
b11001 <
b11000 >
1?
1K
1T
#680000000
0!
0%
0+
04
09
0?
0K
0T
#690000000
1!
1%
1+
14
19
b11000 <
b10111 >
1?
1K
1T
#700000000
0!
0%
0+
04
09
0?
0K
0T
#710000000
1!
1%
1+
14
19
b10111 <
b10110 >
1?
1K
1T
#720000000
0!
0%
0+
04
09
0?
0K
0T
#730000000
1!
1%
1+
14
19
b10110 <
b10101 >
1?
1K
1T
#740000000
0!
0%
0+
04
09
0?
0K
0T
#750000000
1!
1%
1+
14
19
b10101 <
b10100 >
1?
1K
1T
#760000000
0!
0%
0+
04
09
0?
0K
0T
#770000000
1!
1%
1+
14
19
b10100 <
b10011 >
1?
1K
1T
#780000000
0!
0%
0+
04
09
0?
0K
0T
#790000000
1!
1%
1+
14
19
b10011 <
b10010 >
1?
1K
1T
#800000000
0!
0%
0+
04
09
0?
0K
0T
#810000000
1!
1%
1+
14
19
b10010 <
b10001 >
1?
1K
1T
#820000000
0!
0%
0+
04
09
0?
0K
0T
#830000000
1!
1%
1+
14
19
b10001 <
b10000 >
1?
1K
1T
#840000000
0!
0%
0+
04
09
0?
0K
0T
#850000000
1!
1%
1+
14
19
b10000 <
b01111 >
1?
1K
1T
#860000000
0!
0%
0+
04
09
0?
0K
0T
#870000000
1!
1%
1+
14
19
b01111 <
b01110 >
1?
1K
1T
#880000000
0!
0%
0+
04
09
0?
0K
0T
#890000000
1!
1%
1+
14
19
b01110 <
b01101 >
1?
1K
1T
#900000000
0!
0%
0+
04
09
0?
0K
0T
#910000000
1!
1%
1+
14
19
b01101 <
b01100 >
1?
1K
1T
#920000000
0!
0%
0+
04
09
0?
0K
0T
#930000000
1!
1%
1+
14
19
b01100 <
b01011 >
1?
1K
1T
#940000000
0!
0%
0+
04
09
0?
0K
0T
#950000000
1!
1%
1+
14
19
b01011 <
b01010 >
1?
1K
1T
#960000000
0!
0%
0+
04
09
0?
0K
0T
#970000000
1!
1%
1+
14
19
b01010 <
b01001 >
1?
1K
1T
#980000000
0!
0%
0+
04
09
0?
0K
0T
#990000000
1!
1%
1+
14
19
b01001 <
b01000 >
1?
1K
1T
#1000000000
0!
0%
0+
04
09
0?
0K
0T
#1010000000
1!
1%
1+
14
19
b01000 <
b00111 >
1?
1K
1T
#1020000000
0!
0%
0+
04
09
0?
0K
0T
#1030000000
1!
1%
1+
14
19
b00111 <
b00110 >
1?
1K
1T
#1040000000
0!
0%
0+
04
09
0?
0K
0T
#1050000000
1!
1%
1+
14
19
b00110 <
b00101 >
1?
1K
1T
#1060000000
0!
0%
0+
04
09
0?
0K
0T
#1070000000
1!
1%
1+
14
19
b00101 <
b00100 >
1?
1K
1T
#1080000000
0!
0%
0+
04
09
0?
0K
0T
#1090000000
1!
1%
1+
14
19
b00100 <
b00011 >
1?
1K
1T
#1100000000
0!
0%
0+
04
09
0?
0K
0T
#1110000000
1!
1%
1+
14
19
b00011 <
b00010 >
1?
1K
1T
#1120000000
0!
0%
0+
04
09
0?
0K
0T
#1130000000
1!
1%
1+
14
19
b00010 <
b00001 >
1?
1K
1T
#1140000000
0!
0%
0+
04
09
0?
0K
0T
#1150000000
1!
1%
1+
14
19
b00001 <
b00000 >
1?
1K
1T
#1160000000
0!
0%
0+
04
09
0?
0K
0T
#1170000000
1!
1%
1+
12
14
19
1;
b00000 <
1=
b11111 >
1?
1A
1K
1T
#1180000000
0!
0%
0+
04
09
0?
0K
0T
#1190000000
1!
1%
1+
02
14
19
0;
b11010 <
0=
b11001 >
1?
0A
1K
1T
#1200000000
0!
0%
0+
04
09
0?
0K
0T
#1210000000
1!
1%
1+
14
19
b11001 <
b11000 >
1?
1K
1T
#1220000000
0!
0%
0+
04
09
0?
0K
0T
#1230000000
1!
1%
1+
14
19
b11000 <
b10111 >
1?
1K
1T
#1240000000
0!
0%
0+
04
09
0?
0K
0T
#1250000000
1!
1%
1+
14
19
b10111 <
b10110 >
1?
1K
1T
#1260000000
0!
0%
0+
04
09
0?
0K
0T
#1270000000
1!
1%
1+
14
19
b10110 <
b10101 >
1?
1K
1T
#1280000000
0!
0%
0+
04
09
0?
0K
0T
#1290000000
1!
1%
1+
14
19
b10101 <
b10100 >
1?
1K
1T
#1300000000
0!
0%
0+
04
09
0?
0K
0T
#1310000000
1!
1%
1+
14
19
b10100 <
b10011 >
1?
1K
1T
#1320000000
0!
0%
0+
04
09
0?
0K
0T
#1330000000
1!
1%
1+
14
19
b10011 <
b10010 >
1?
1K
1T
#1340000000
0!
0%
0+
04
09
0?
0K
0T
#1350000000
1!
1%
1+
14
19
b10010 <
b10001 >
1?
1K
1T
#1360000000
0!
0%
0+
04
09
0?
0K
0T
#1370000000
1!
1%
1+
14
19
b10001 <
b10000 >
1?
1K
1T
#1380000000
0!
0%
0+
04
09
0?
0K
0T
#1390000000
1!
1%
1+
14
19
b10000 <
b01111 >
1?
1K
1T
#1400000000
0!
0%
0+
04
09
0?
0K
0T
#1410000000
1!
1%
1+
14
19
b01111 <
b01110 >
1?
1K
1T
#1420000000
0!
0%
0+
04
09
0?
0K
0T
#1430000000
1!
1%
1+
14
19
b01110 <
b01101 >
1?
1K
1T
#1440000000
0!
0%
0+
04
09
0?
0K
0T
#1450000000
1!
1%
1+
14
19
b01101 <
b01100 >
1?
1K
1T
#1460000000
0!
0%
0+
04
09
0?
0K
0T
#1470000000
1!
1%
1+
14
19
b01100 <
b01011 >
1?
1K
1T
#1480000000
0!
0%
0+
04
09
0?
0K
0T
#1490000000
1!
1%
1+
14
19
b01011 <
b01010 >
1?
1K
1T
#1500000000
0!
0%
0+
04
09
0?
0K
0T
#1510000000
1!
1%
1+
14
19
b01010 <
b01001 >
1?
1K
1T
#1520000000
0!
0%
0+
04
09
0?
0K
0T
#1530000000
1!
1%
1+
14
19
b01001 <
b01000 >
1?
1K
1T
#1540000000
0!
0%
0+
04
09
0?
0K
0T
#1550000000
1!
1%
1+
14
19
b01000 <
b00111 >
1?
1K
1T
#1560000000
0!
0%
0+
04
09
0?
0K
0T
#1570000000
1!
1%
1+
14
19
b00111 <
b00110 >
1?
1K
1T
#1580000000
0!
0%
0+
04
09
0?
0K
0T
#1590000000
1!
1%
1+
14
19
b00110 <
b00101 >
1?
1K
1T
#1600000000
0!
0%
0+
04
09
0?
0K
0T
#1610000000
1!
1%
1+
14
19
b00101 <
b00100 >
1?
1K
1T
#1620000000
0!
0%
0+
04
09
0?
0K
0T
#1630000000
1!
1%
1+
14
19
b00100 <
b00011 >
1?
1K
1T
#1640000000
0!
0%
0+
04
09
0?
0K
0T
#1650000000
1!
1%
1+
14
19
b00011 <
b00010 >
1?
1K
1T
#1660000000
0!
0%
0+
04
09
0?
0K
0T
#1670000000
1!
1%
1+
14
19
b00010 <
b00001 >
1?
1K
1T
#1680000000
0!
0%
0+
04
09
0?
0K
0T
#1690000000
1!
1%
1+
14
19
b00001 <
b00000 >
1?
1K
1T
#1700000000
0!
0%
0+
04
09
0?
0K
0T
#1710000000
1!
1%
1+
12
14
19
1;
b00000 <
1=
b11111 >
1?
1A
1K
1T
#1720000000
0!
0%
0+
04
09
0?
0K
0T
#1730000000
1!
1%
1+
02
14
19
0;
b11010 <
0=
b11001 >
1?
0A
1K
1T
#1740000000
0!
0%
0+
04
09
0?
0K
0T
#1750000000
1!
1%
1+
14
19
b11001 <
b11000 >
1?
1K
1T
#1760000000
0!
0%
0+
04
09
0?
0K
0T
#1770000000
1!
1%
1+
14
19
b11000 <
b10111 >
1?
1K
1T
#1780000000
0!
0%
0+
04
09
0?
0K
0T
#1790000000
1!
1%
1+
14
19
b10111 <
b10110 >
1?
1K
1T
#1800000000
0!
0%
0+
04
09
0?
0K
0T
#1810000000
1!
1%
1+
14
19
b10110 <
b10101 >
1?
1K
1T
#1820000000
0!
0%
0+
04
09
0?
0K
0T
#1830000000
1!
1%
1+
14
19
b10101 <
b10100 >
1?
1K
1T
#1840000000
0!
0%
0+
04
09
0?
0K
0T
#1850000000
1!
1%
1+
14
19
b10100 <
b10011 >
1?
1K
1T
#1860000000
0!
0%
0+
04
09
0?
0K
0T
#1870000000
1!
1%
1+
14
19
b10011 <
b10010 >
1?
1K
1T
#1880000000
0!
0%
0+
04
09
0?
0K
0T
#1890000000
1!
1%
1+
14
19
b10010 <
b10001 >
1?
1K
1T
#1900000000
0!
0%
0+
04
09
0?
0K
0T
#1910000000
1!
1%
1+
14
19
b10001 <
b10000 >
1?
1K
1T
#1920000000
0!
0%
0+
04
09
0?
0K
0T
#1930000000
1!
1%
1+
14
19
b10000 <
b01111 >
1?
1K
1T
#1940000000
0!
0%
0+
04
09
0?
0K
0T
#1950000000
1!
1%
1+
14
19
b01111 <
b01110 >
1?
1K
1T
#1960000000
0!
0%
0+
04
09
0?
0K
0T
#1970000000
1!
1%
1+
14
19
b01110 <
b01101 >
1?
1K
1T
#1980000000
0!
0%
0+
04
09
0?
0K
0T
#1990000000
1!
1%
1+
14
19
b01101 <
b01100 >
1?
1K
1T
#2000000000
0!
0%
0+
04
09
0?
0K
0T
#2010000000
1!
1%
1+
14
19
b01100 <
b01011 >
1?
1K
1T
#2020000000
0!
0%
0+
04
09
0?
0K
0T
#2030000000
1!
1%
1+
14
19
b01011 <
b01010 >
1?
1K
1T
#2040000000
0!
0%
0+
04
09
0?
0K
0T
#2050000000
1!
1%
1+
14
19
b01010 <
b01001 >
1?
1K
1T
#2060000000
0!
0%
0+
04
09
0?
0K
0T
#2070000000
1!
1%
1+
14
19
b01001 <
b01000 >
1?
1K
1T
#2080000000
0!
0%
0+
04
09
0?
0K
0T
#2090000000
1!
1%
1+
14
19
b01000 <
b00111 >
1?
1K
1T
#2100000000
0!
0%
0+
04
09
0?
0K
0T
#2110000000
1!
1%
1+
14
19
b00111 <
b00110 >
1?
1K
1T
#2120000000
0!
0%
0+
04
09
0?
0K
0T
#2130000000
1!
1%
1+
14
19
b00110 <
b00101 >
1?
1K
1T
#2140000000
0!
0%
0+
04
09
0?
0K
0T
#2150000000
1!
1%
1+
14
19
b00101 <
b00100 >
1?
1K
1T
#2160000000
0!
0%
0+
04
09
0?
0K
0T
#2170000000
1!
1%
1+
14
19
b00100 <
b00011 >
1?
1K
1T
#2180000000
0!
0%
0+
04
09
0?
0K
0T
#2190000000
1!
1%
1+
14
19
b00011 <
b00010 >
1?
1K
1T
#2200000000
0!
0%
0+
04
09
0?
0K
0T
#2210000000
1!
1%
1+
14
19
b00010 <
b00001 >
1?
1K
1T
#2220000000
0!
0%
0+
04
09
0?
0K
0T
#2230000000
1!
1%
1+
14
19
b00001 <
b00000 >
1?
1K
1T
#2240000000
0!
0%
0+
04
09
0?
0K
0T
#2250000000
1!
1%
1+
12
14
19
1;
b00000 <
1=
b11111 >
1?
1A
1K
1T
#2260000000
0!
0%
0+
04
09
0?
0K
0T
#2270000000
1!
1%
1+
02
14
19
0;
b11010 <
0=
b11001 >
1?
0A
1K
1T
#2280000000
0!
0%
0+
04
09
0?
0K
0T
#2290000000
1!
1%
1+
14
19
b11001 <
b11000 >
1?
1K
1T
#2300000000
0!
0%
0+
04
09
0?
0K
0T
#2310000000
1!
1%
1+
14
19
b11000 <
b10111 >
1?
1K
1T
#2320000000
0!
0%
0+
04
09
0?
0K
0T
#2330000000
1!
1%
1+
14
19
b10111 <
b10110 >
1?
1K
1T
#2340000000
0!
0%
0+
04
09
0?
0K
0T
#2350000000
1!
1%
1+
14
19
b10110 <
b10101 >
1?
1K
1T
#2360000000
0!
0%
0+
04
09
0?
0K
0T
#2370000000
1!
1%
1+
14
19
b10101 <
b10100 >
1?
1K
1T
#2380000000
0!
0%
0+
04
09
0?
0K
0T
#2390000000
1!
1%
1+
14
19
b10100 <
b10011 >
1?
1K
1T
#2400000000
0!
0%
0+
04
09
0?
0K
0T
#2410000000
1!
1%
1+
14
19
b10011 <
b10010 >
1?
1K
1T
#2420000000
0!
0%
0+
04
09
0?
0K
0T
#2430000000
1!
1%
1+
14
19
b10010 <
b10001 >
1?
1K
1T
#2440000000
0!
0%
0+
04
09
0?
0K
0T
#2450000000
1!
1%
1+
14
19
b10001 <
b10000 >
1?
1K
1T
#2460000000
0!
0%
0+
04
09
0?
0K
0T
#2470000000
1!
1%
1+
14
19
b10000 <
b01111 >
1?
1K
1T
#2480000000
0!
0%
0+
04
09
0?
0K
0T
#2490000000
1!
1%
1+
14
19
b01111 <
b01110 >
1?
1K
1T
#2500000000
0!
0%
0+
04
09
0?
0K
0T
#2510000000
1!
1%
1+
14
19
b01110 <
b01101 >
1?
1K
1T
#2520000000
0!
0%
0+
04
09
0?
0K
0T
#2530000000
1!
1%
1+
14
19
b01101 <
b01100 >
1?
1K
1T
#2540000000
0!
0%
0+
04
09
0?
0K
0T
#2550000000
1!
1%
1+
14
19
b01100 <
b01011 >
1?
1K
1T
#2560000000
0!
0%
0+
04
09
0?
0K
0T
#2570000000
1!
1%
1+
14
19
b01011 <
b01010 >
1?
1K
1T
#2580000000
0!
0%
0+
04
09
0?
0K
0T
#2590000000
1!
1%
1+
14
19
b01010 <
b01001 >
1?
1K
1T
#2600000000
0!
0%
0+
04
09
0?
0K
0T
#2610000000
1!
1%
1+
14
19
b01001 <
b01000 >
1?
1K
1T
#2620000000
0!
0%
0+
04
09
0?
0K
0T
#2630000000
1!
1%
1+
14
19
b01000 <
b00111 >
1?
1K
1T
#2640000000
0!
0%
0+
04
09
0?
0K
0T
#2650000000
1!
1%
1+
14
19
b00111 <
b00110 >
1?
1K
1T
#2660000000
0!
0%
0+
04
09
0?
0K
0T
#2670000000
1!
1%
1+
14
19
b00110 <
b00101 >
1?
1K
1T
#2680000000
0!
0%
0+
04
09
0?
0K
0T
#2690000000
1!
1%
1+
14
19
b00101 <
b00100 >
1?
1K
1T
#2700000000
0!
0%
0+
04
09
0?
0K
0T
#2710000000
1!
1%
1+
14
19
b00100 <
b00011 >
1?
1K
1T
#2720000000
0!
0%
0+
04
09
0?
0K
0T
#2730000000
1!
1%
1+
14
19
b00011 <
b00010 >
1?
1K
1T
#2740000000
0!
0%
0+
04
09
0?
0K
0T
#2750000000
1!
1%
1+
14
19
b00010 <
b00001 >
1?
1K
1T
#2760000000
0!
0%
0+
04
09
0?
0K
0T
#2770000000
1!
1%
1+
14
19
b00001 <
b00000 >
1?
1K
1T
#2780000000
0!
0%
0+
04
09
0?
0K
0T
#2790000000
1!
1%
1+
12
14
19
1;
b00000 <
1=
b11111 >
1?
1A
1K
1T
#2800000000
0!
0%
0+
04
09
0?
0K
0T
#2810000000
1!
1%
1+
02
14
19
0;
b11010 <
0=
b11001 >
1?
0A
1K
1T
#2820000000
0!
0%
0+
04
09
0?
0K
0T
#2830000000
1!
1%
1+
14
19
b11001 <
b11000 >
1?
1K
1T
#2840000000
0!
0%
0+
04
09
0?
0K
0T
#2850000000
1!
1%
1+
14
19
b11000 <
b10111 >
1?
1K
1T
#2860000000
0!
0%
0+
04
09
0?
0K
0T
#2870000000
1!
1%
1+
14
19
b10111 <
b10110 >
1?
1K
1T
#2880000000
0!
0%
0+
04
09
0?
0K
0T
#2890000000
1!
1%
1+
14
19
b10110 <
b10101 >
1?
1K
1T
#2900000000
0!
0%
0+
04
09
0?
0K
0T
#2910000000
1!
1%
1+
14
19
b10101 <
b10100 >
1?
1K
1T
#2920000000
0!
0%
0+
04
09
0?
0K
0T
#2930000000
1!
1%
1+
14
19
b10100 <
b10011 >
1?
1K
1T
#2940000000
0!
0%
0+
04
09
0?
0K
0T
#2950000000
1!
1%
1+
14
19
b10011 <
b10010 >
1?
1K
1T
#2960000000
0!
0%
0+
04
09
0?
0K
0T
#2970000000
1!
1%
1+
14
19
b10010 <
b10001 >
1?
1K
1T
#2980000000
0!
0%
0+
04
09
0?
0K
0T
#2990000000
1!
1%
1+
14
19
b10001 <
b10000 >
1?
1K
1T
#3000000000
0!
0%
0+
04
09
0?
0K
0T
#3010000000
1!
1%
1+
14
19
b10000 <
b01111 >
1?
1K
1T
#3020000000
0!
0%
0+
04
09
0?
0K
0T
#3030000000
1!
1%
1+
14
19
b01111 <
b01110 >
1?
1K
1T
#3040000000
0!
0%
0+
04
09
0?
0K
0T
#3050000000
1!
1%
1+
14
19
b01110 <
b01101 >
1?
1K
1T
#3060000000
0!
0%
0+
04
09
0?
0K
0T
#3070000000
1!
1%
1+
14
19
b01101 <
b01100 >
1?
1K
1T
#3080000000
0!
0%
0+
04
09
0?
0K
0T
#3090000000
1!
1%
1+
14
19
b01100 <
b01011 >
1?
1K
1T
#3100000000
0!
0%
0+
04
09
0?
0K
0T
#3110000000
1!
1%
1+
14
19
b01011 <
b01010 >
1?
1K
1T
#3120000000
0!
0%
0+
04
09
0?
0K
0T
#3130000000
1!
1%
1+
14
19
b01010 <
b01001 >
1?
1K
1T
#3140000000
0!
0%
0+
04
09
0?
0K
0T
#3150000000
1!
1%
1+
14
19
b01001 <
b01000 >
1?
1K
1T
#3160000000
0!
0%
0+
04
09
0?
0K
0T
#3170000000
1!
1%
1+
14
19
b01000 <
b00111 >
1?
1K
1T
#3180000000
0!
0%
0+
04
09
0?
0K
0T
#3190000000
1!
1%
1+
14
19
b00111 <
b00110 >
1?
1K
1T
#3200000000
0!
0%
0+
04
09
0?
0K
0T
#3210000000
1!
1%
1+
14
19
b00110 <
b00101 >
1?
1K
1T
#3220000000
0!
0%
0+
04
09
0?
0K
0T
#3230000000
1!
1%
1+
14
19
b00101 <
b00100 >
1?
1K
1T
#3240000000
0!
0%
0+
04
09
0?
0K
0T
#3250000000
1!
1%
1+
14
19
b00100 <
b00011 >
1?
1K
1T
#3260000000
0!
0%
0+
04
09
0?
0K
0T
#3270000000
1!
1%
1+
14
19
b00011 <
b00010 >
1?
1K
1T
#3280000000
0!
0%
0+
04
09
0?
0K
0T
#3290000000
1!
1%
1+
14
19
b00010 <
b00001 >
1?
1K
1T
#3300000000
0!
0%
0+
04
09
0?
0K
0T
#3310000000
1!
1%
1+
14
19
b00001 <
b00000 >
1?
1K
1T
#3320000000
0!
0%
0+
04
09
0?
0K
0T
#3330000000
1!
1%
1+
12
14
19
1;
b00000 <
1=
b11111 >
1?
1A
1K
1T
#3340000000
0!
0%
0+
04
09
0?
0K
0T
#3350000000
1!
1%
1+
02
14
19
0;
b11010 <
0=
b11001 >
1?
0A
1K
1T
#3360000000
0!
0%
0+
04
09
0?
0K
0T
#3370000000
1!
1%
1+
14
19
b11001 <
b11000 >
1?
1K
1T
#3380000000
0!
0%
0+
04
09
0?
0K
0T
#3390000000
1!
1%
1+
14
19
b11000 <
b10111 >
1?
1K
1T
#3400000000
0!
0%
0+
04
09
0?
0K
0T
#3410000000
1!
1%
1+
14
19
b10111 <
b10110 >
1?
1K
1T
#3420000000
0!
0%
0+
04
09
0?
0K
0T
#3430000000
1!
1%
1+
14
19
b10110 <
b10101 >
1?
1K
1T
#3440000000
0!
0%
0+
04
09
0?
0K
0T
#3450000000
1!
1%
1+
14
19
b10101 <
b10100 >
1?
1K
1T
#3460000000
0!
0%
0+
04
09
0?
0K
0T
#3470000000
1!
1%
1+
14
19
b10100 <
b10011 >
1?
1K
1T
#3480000000
0!
0%
0+
04
09
0?
0K
0T
#3490000000
1!
1%
1+
14
19
b10011 <
b10010 >
1?
1K
1T
#3500000000
0!
0%
0+
04
09
0?
0K
0T
#3510000000
1!
1%
1+
14
19
b10010 <
b10001 >
1?
1K
1T
#3520000000
0!
0%
0+
04
09
0?
0K
0T
#3530000000
1!
1%
1+
14
19
b10001 <
b10000 >
1?
1K
1T
#3540000000
0!
0%
0+
04
09
0?
0K
0T
#3550000000
1!
1%
1+
14
19
b10000 <
b01111 >
1?
1K
1T
#3560000000
0!
0%
0+
04
09
0?
0K
0T
#3570000000
1!
1%
1+
14
19
b01111 <
b01110 >
1?
1K
1T
#3580000000
0!
0%
0+
04
09
0?
0K
0T
#3590000000
1!
1%
1+
14
19
b01110 <
b01101 >
1?
1K
1T
#3600000000
0!
0%
0+
04
09
0?
0K
0T
#3610000000
1!
1%
1+
14
19
b01101 <
b01100 >
1?
1K
1T
#3620000000
0!
0%
0+
04
09
0?
0K
0T
#3630000000
1!
1%
1+
14
19
b01100 <
b01011 >
1?
1K
1T
#3640000000
0!
0%
0+
04
09
0?
0K
0T
#3650000000
1!
1%
1+
14
19
b01011 <
b01010 >
1?
1K
1T
#3660000000
0!
0%
0+
04
09
0?
0K
0T
#3670000000
1!
1%
1+
14
19
b01010 <
b01001 >
1?
1K
1T
#3680000000
0!
0%
0+
04
09
0?
0K
0T
#3690000000
1!
1%
1+
14
19
b01001 <
b01000 >
1?
1K
1T
#3700000000
0!
0%
0+
04
09
0?
0K
0T
#3710000000
1!
1%
1+
14
19
b01000 <
b00111 >
1?
1K
1T
#3720000000
0!
0%
0+
04
09
0?
0K
0T
#3730000000
1!
1%
1+
14
19
b00111 <
b00110 >
1?
1K
1T
#3740000000
0!
0%
0+
04
09
0?
0K
0T
#3750000000
1!
1%
1+
14
19
b00110 <
b00101 >
1?
1K
1T
#3760000000
0!
0%
0+
04
09
0?
0K
0T
#3770000000
1!
1%
1+
14
19
b00101 <
b00100 >
1?
1K
1T
#3780000000
0!
0%
0+
04
09
0?
0K
0T
#3790000000
1!
1%
1+
14
19
b00100 <
b00011 >
1?
1K
1T
#3800000000
0!
0%
0+
04
09
0?
0K
0T
#3810000000
1!
1%
1+
14
19
b00011 <
b00010 >
1?
1K
1T
#3820000000
0!
0%
0+
04
09
0?
0K
0T
#3830000000
1!
1%
1+
14
19
b00010 <
b00001 >
1?
1K
1T
#3840000000
0!
0%
0+
04
09
0?
0K
0T
#3850000000
1!
1%
1+
14
19
b00001 <
b00000 >
1?
1K
1T
#3860000000
0!
0%
0+
04
09
0?
0K
0T
#3870000000
1!
1%
1+
12
14
19
1;
b00000 <
1=
b11111 >
1?
1A
1K
1T
#3880000000
0!
0%
0+
04
09
0?
0K
0T
