uart_cont_tb.vcd
$date
  Tue Apr 20 17:11:09 2021
$end
$version
  GHDL v0
$end
$timescale
  1 fs
$end
$scope module standard $end
$upscope $end
$scope module std_logic_1164 $end
$upscope $end
$scope module numeric_std $end
$upscope $end
$scope module uart_cont_tb $end
$var reg 1 ! clock $end
$var reg 1 " ena $end
$var reg 4 # cont_out[3:0] $end
$var reg 1 $ rst $end
$var reg 1 % rxd $end
$scope module dut $end
$var reg 1 & clk_pin $end
$var reg 1 ' ena_pin $end
$var reg 1 ( rst_pin $end
$var reg 1 ) rxd_pin $end
$var reg 4 * cont_pins[3:0] $end
$var reg 8 + rx_data[7:0] $end
$var reg 1 , rx_data_rdy $end
$scope module uart_rx_i0 $end
$var reg 1 - clk_rx $end
$var reg 1 . rst_clk_rx $end
$var reg 1 / rxd_i $end
$var reg 1 0 rxd_clk_rx $end
$var reg 8 1 rx_data[7:0] $end
$var reg 1 2 rx_data_rdy $end
$var reg 1 3 frm_err $end
$var reg 1 4 baud_x16_en $end
$var reg 1 5 rxd_clk_rx_aux $end
$scope module meta_harden_rxd_i0 $end
$var reg 1 6 clk_dst $end
$var reg 1 7 rst_dst $end
$var reg 1 8 signal_src $end
$var reg 1 9 signal_dst $end
$var reg 1 : signal_meta $end
$upscope $end
$scope module uart_baud_gen_rx_i0 $end
$var reg 1 ; clk $end
$var reg 1 < rst $end
$var reg 1 = baud_x16_en $end
$var reg 5 > internal_count[4:0] $end
$var reg 1 ? baud_x16_en_reg $end
$var reg 5 @ internal_count_m_1[4:0] $end
$upscope $end
$scope module uart_rx_ctl_i0 $end
$var reg 1 A clk_rx $end
$var reg 1 B rst_clk_rx $end
$var reg 1 C baud_x16_en $end
$var reg 1 D rxd_clk_rx $end
$var reg 8 E rx_data[7:0] $end
$var reg 1 F rx_data_rdy $end
$var reg 1 G frm_err $end
$var reg 2 H state[1:0] $end
$var reg 4 I over_sample_cnt[3:0] $end
$var reg 3 J bit_cnt[2:0] $end
$var reg 1 K over_sample_cnt_done $end
$var reg 1 L bit_cnt_done $end
$upscope $end
$upscope $end
$scope module contnb_ctl_i0 $end
$var reg 1 M clk_i $end
$var reg 1 N ena_i $end
$var reg 8 O rx_data[7:0] $end
$var reg 1 P rx_data_rdy $end
$var reg 4 Q count_o[3:0] $end
$var reg 1 R old_rx_data_rdy $end
$var reg 1 S rst $end
$var reg 1 T asc $end
$var reg 1 U ena $end
$var reg 1 V aux $end
$scope module contnb_i0 $end
$var reg 1 W clk_i $end
$var reg 1 X rst_i $end
$var reg 1 Y ena_i $end
$var reg 1 Z asc_i $end
$var reg 4 [ q[3:0] $end
$var reg 4 \ aux[3:0] $end
$upscope $end
$upscope $end
$upscope $end
$upscope $end
$enddefinitions $end
#0
0!
1"
bUUUU #
0$
0%
0&
1'
0(
0)
bUUUU *
bUUUUUUUU +
U,
0-
0.
0/
U0
bUUUUUUUU 1
U2
U3
U4
U5
06
07
08
U9
U:
0;
0<
U=
bUUUUU >
U?
bXXXXX @
0A
0B
UC
UD
bUUUUUUUU E
UF
UG
bUU H
bUUUU I
bUUU J
0K
0L
0M
1N
bUUUUUUUU O
UP
bUUUU Q
UR
US
UT
0U
0V
0W
UX
0Y
UZ
bUUUU [
bUUUU \
#10000000
1!
1&
1-
04
16
0:
1;
0=
bXXXXX >
0?
1A
0C
1M
1W
#20000000
0!
0&
0-
06
0;
0A
0M
0W
#30000000
1!
1&
1-
00
05
16
09
1;
1A
0D
1M
1W
#40000000
0!
0&
0-
06
0;
0A
0M
0W
#50000000
1!
1&
1-
16
1;
1A
1M
1W
#60000000
0!
0&
0-
06
0;
0A
0M
0W
#70000000
1!
1&
1-
16
1;
1A
1M
1W
#80000000
0!
0&
0-
06
0;
0A
0M
0W
#90000000
1!
1&
1-
16
1;
1A
1M
1W
#100000000
0!
1$
1%
0&
1(
1)
0-
1.
1/
06
17
18
0;
1<
0A
1B
0M
0W
#110000000
1!
1&
b00000000 +
0,
1-
b00000000 1
02
03
16
1;
b11010 >
b11001 @
1A
b00000000 E
0F
0G
b00 H
b0000 I
b000 J
1K
1M
b00000000 O
0P
1W
#120000000
0!
0$
0%
0&
0(
0)
0-
0.
0/
06
07
08
0;
0<
0A
0B
0M
0W
#130000000
1!
1&
1-
16
1;
b11001 >
b11000 @
1A
1M
0R
1W
#140000000
0!
0&
0-
06
0;
0A
0M
0W
#150000000
1!
1&
1-
16
1;
b11000 >
b10111 @
1A
1M
1W
#160000000
0!
0&
0-
06
0;
0A
0M
0W
#170000000
1!
1&
1-
16
1;
b10111 >
b10110 @
1A
1M
1W
#180000000
0!
0&
0-
06
0;
0A
0M
0W
#190000000
1!
1&
1-
16
1;
b10110 >
b10101 @
1A
1M
1W
#200000000
0!
0&
0-
06
0;
0A
0M
0W
#210000000
1!
1&
1-
16
1;
b10101 >
b10100 @
1A
1M
1W
#220000000
0!
0&
0-
06
0;
0A
0M
0W
#230000000
1!
1&
1-
16
1;
b10100 >
b10011 @
1A
1M
1W
#240000000
0!
0&
0-
06
0;
0A
0M
0W
#250000000
1!
1&
1-
16
1;
b10011 >
b10010 @
1A
1M
1W
#260000000
0!
0&
0-
06
0;
0A
0M
0W
#270000000
1!
1&
1-
16
1;
b10010 >
b10001 @
1A
1M
1W
#280000000
0!
0&
0-
06
0;
0A
0M
0W
#290000000
1!
1&
1-
16
1;
b10001 >
b10000 @
1A
1M
1W
#300000000
0!
0&
0-
06
0;
0A
0M
0W
#310000000
1!
1&
1-
16
1;
b10000 >
b01111 @
1A
1M
1W
#320000000
0!
0&
0-
06
0;
0A
0M
0W
#330000000
1!
1&
1-
16
1;
b01111 >
b01110 @
1A
1M
1W
#340000000
0!
0&
0-
06
0;
0A
0M
0W
#350000000
1!
1&
1-
16
1;
b01110 >
b01101 @
1A
1M
1W
#360000000
0!
0&
0-
06
0;
0A
0M
0W
#370000000
1!
1&
1-
16
1;
b01101 >
b01100 @
1A
1M
1W
#380000000
0!
0&
0-
06
0;
0A
0M
0W
#390000000
1!
1&
1-
16
1;
b01100 >
b01011 @
1A
1M
1W
#400000000
0!
0&
0-
06
0;
0A
0M
0W
#410000000
1!
1&
1-
16
1;
b01011 >
b01010 @
1A
1M
1W
#420000000
0!
0&
0-
06
0;
0A
0M
0W
#430000000
1!
1&
1-
16
1;
b01010 >
b01001 @
1A
1M
1W
#440000000
0!
0&
0-
06
0;
0A
0M
0W
#450000000
1!
1&
1-
16
1;
b01001 >
b01000 @
1A
1M
1W
#460000000
0!
0&
0-
06
0;
0A
0M
0W
#470000000
1!
1&
1-
16
1;
b01000 >
b00111 @
1A
1M
1W
#480000000
0!
0&
0-
06
0;
0A
0M
0W
#490000000
1!
1&
1-
16
1;
b00111 >
b00110 @
1A
1M
1W
#500000000
0!
0&
0-
06
0;
0A
0M
0W
#510000000
1!
1&
1-
16
1;
b00110 >
b00101 @
1A
1M
1W
#520000000
0!
0&
0-
06
0;
0A
0M
0W
#530000000
1!
1&
1-
16
1;
b00101 >
b00100 @
1A
1M
1W
#540000000
0!
0&
0-
06
0;
0A
0M
0W
#550000000
1!
1&
1-
16
1;
b00100 >
b00011 @
1A
1M
1W
#560000000
0!
0&
0-
06
0;
0A
0M
0W
#570000000
1!
1&
1-
16
1;
b00011 >
b00010 @
1A
1M
1W
#580000000
0!
0&
0-
06
0;
0A
0M
0W
#590000000
1!
1&
1-
16
1;
b00010 >
b00001 @
1A
1M
1W
#600000000
0!
0&
0-
06
0;
0A
0M
0W
#610000000
1!
1&
1-
16
1;
b00001 >
b00000 @
1A
1M
1W
#620000000
0!
0&
0-
06
0;
0A
0M
0W
#630000000
1!
1&
1-
14
16
1;
1=
b00000 >
1?
b11111 @
1A
1C
1M
1W
#640000000
0!
0&
0-
06
0;
0A
0M
0W
#650000000
1!
1&
1-
04
16
1;
0=
b11010 >
0?
b11001 @
1A
0C
b01 H
b0111 I
0K
1M
1W
#660000000
0!
0&
0-
06
0;
0A
0M
0W
#670000000
1!
1&
1-
16
1;
b11001 >
b11000 @
1A
1M
1W
#680000000
0!
0&
0-
06
0;
0A
0M
0W
#690000000
1!
1&
1-
16
1;
b11000 >
b10111 @
1A
1M
1W
#700000000
0!
0&
0-
06
0;
0A
0M
0W
#710000000
1!
1&
1-
16
1;
b10111 >
b10110 @
1A
1M
1W
#720000000
0!
0&
0-
06
0;
0A
0M
0W
#730000000
1!
1&
1-
16
1;
b10110 >
b10101 @
1A
1M
1W
#740000000
0!
0&
0-
06
0;
0A
0M
0W
#750000000
1!
1&
1-
16
1;
b10101 >
b10100 @
1A
1M
1W
#760000000
0!
0&
0-
06
0;
0A
0M
0W
#770000000
1!
1&
1-
16
1;
b10100 >
b10011 @
1A
1M
1W
#780000000
0!
0&
0-
06
0;
0A
0M
0W
#790000000
1!
1&
1-
16
1;
b10011 >
b10010 @
1A
1M
1W
#800000000
0!
0&
0-
06
0;
0A
0M
0W
#810000000
1!
1&
1-
16
1;
b10010 >
b10001 @
1A
1M
1W
#820000000
0!
0&
0-
06
0;
0A
0M
0W
#830000000
1!
1&
1-
16
1;
b10001 >
b10000 @
1A
1M
1W
#840000000
0!
0&
0-
06
0;
0A
0M
0W
#850000000
1!
1&
1-
16
1;
b10000 >
b01111 @
1A
1M
1W
#860000000
0!
0&
0-
06
0;
0A
0M
0W
#870000000
1!
1&
1-
16
1;
b01111 >
b01110 @
1A
1M
1W
#880000000
0!
0&
0-
06
0;
0A
0M
0W
#890000000
1!
1&
1-
16
1;
b01110 >
b01101 @
1A
1M
1W
#900000000
0!
0&
0-
06
0;
0A
0M
0W
#910000000
1!
1&
1-
16
1;
b01101 >
b01100 @
1A
1M
1W
#920000000
0!
0&
0-
06
0;
0A
0M
0W
#930000000
1!
1&
1-
16
1;
b01100 >
b01011 @
1A
1M
1W
#940000000
0!
0&
0-
06
0;
0A
0M
0W
#950000000
1!
1&
1-
16
1;
b01011 >
b01010 @
1A
1M
1W
#960000000
0!
0&
0-
06
0;
0A
0M
0W
#970000000
1!
1&
1-
16
1;
b01010 >
b01001 @
1A
1M
1W
#980000000
0!
0&
0-
06
0;
0A
0M
0W
#990000000
1!
1&
1-
16
1;
b01001 >
b01000 @
1A
1M
1W
#1000000000
0!
0&
0-
06
0;
0A
0M
0W
#1010000000
1!
1&
1-
16
1;
b01000 >
b00111 @
1A
1M
1W
#1020000000
0!
0&
0-
06
0;
0A
0M
0W
#1030000000
1!
1&
1-
16
1;
b00111 >
b00110 @
1A
1M
1W
#1040000000
0!
0&
0-
06
0;
0A
0M
0W
#1050000000
1!
1&
1-
16
1;
b00110 >
b00101 @
1A
1M
1W
#1060000000
0!
0&
0-
06
0;
0A
0M
0W
#1070000000
1!
1&
1-
16
1;
b00101 >
b00100 @
1A
1M
1W
#1080000000
0!
0&
0-
06
0;
0A
0M
0W
#1090000000
1!
1&
1-
16
1;
b00100 >
b00011 @
1A
1M
1W
#1100000000
0!
0&
0-
06
0;
0A
0M
0W
#1110000000
1!
1&
1-
16
1;
b00011 >
b00010 @
1A
1M
1W
#1120000000
0!
0&
0-
06
0;
0A
0M
0W
#1130000000
1!
1&
1-
16
1;
b00010 >
b00001 @
1A
1M
1W
#1140000000
0!
0&
0-
06
0;
0A
0M
0W
#1150000000
1!
1&
1-
16
1;
b00001 >
b00000 @
1A
1M
1W
#1160000000
0!
0&
0-
06
0;
0A
0M
0W
#1170000000
1!
1&
1-
14
16
1;
1=
b00000 >
1?
b11111 @
1A
1C
1M
1W
#1180000000
0!
0&
0-
06
0;
0A
0M
0W
#1190000000
1!
1&
1-
04
16
1;
0=
b11010 >
0?
b11001 @
1A
0C
b0110 I
1M
1W
#1200000000
0!
0&
0-
06
0;
0A
0M
0W
#1210000000
1!
1&
1-
16
1;
b11001 >
b11000 @
1A
1M
1W
#1220000000
0!
0&
0-
06
0;
0A
0M
0W
#1230000000
1!
1&
1-
16
1;
b11000 >
b10111 @
1A
1M
1W
#1240000000
0!
0&
0-
06
0;
0A
0M
0W
#1250000000
1!
1&
1-
16
1;
b10111 >
b10110 @
1A
1M
1W
#1260000000
0!
0&
0-
06
0;
0A
0M
0W
#1270000000
1!
1&
1-
16
1;
b10110 >
b10101 @
1A
1M
1W
#1280000000
0!
0&
0-
06
0;
0A
0M
0W
#1290000000
1!
1&
1-
16
1;
b10101 >
b10100 @
1A
1M
1W
#1300000000
0!
0&
0-
06
0;
0A
0M
0W
#1310000000
1!
1&
1-
16
1;
b10100 >
b10011 @
1A
1M
1W
#1320000000
0!
0&
0-
06
0;
0A
0M
0W
#1330000000
1!
1&
1-
16
1;
b10011 >
b10010 @
1A
1M
1W
#1340000000
0!
0&
0-
06
0;
0A
0M
0W
#1350000000
1!
1&
1-
16
1;
b10010 >
b10001 @
1A
1M
1W
#1360000000
0!
0&
0-
06
0;
0A
0M
0W
#1370000000
1!
1&
1-
16
1;
b10001 >
b10000 @
1A
1M
1W
#1380000000
0!
0&
0-
06
0;
0A
0M
0W
#1390000000
1!
1&
1-
16
1;
b10000 >
b01111 @
1A
1M
1W
#1400000000
0!
0&
0-
06
0;
0A
0M
0W
#1410000000
1!
1&
1-
16
1;
b01111 >
b01110 @
1A
1M
1W
#1420000000
0!
0&
0-
06
0;
0A
0M
0W
#1430000000
1!
1&
1-
16
1;
b01110 >
b01101 @
1A
1M
1W
#1440000000
0!
0&
0-
06
0;
0A
0M
0W
#1450000000
1!
1&
1-
16
1;
b01101 >
b01100 @
1A
1M
1W
#1460000000
0!
0&
0-
06
0;
0A
0M
0W
#1470000000
1!
1&
1-
16
1;
b01100 >
b01011 @
1A
1M
1W
#1480000000
0!
0&
0-
06
0;
0A
0M
0W
#1490000000
1!
1&
1-
16
1;
b01011 >
b01010 @
1A
1M
1W
#1500000000
0!
0&
0-
06
0;
0A
0M
0W
#1510000000
1!
1&
1-
16
1;
b01010 >
b01001 @
1A
1M
1W
#1520000000
0!
0&
0-
06
0;
0A
0M
0W
#1530000000
1!
1&
1-
16
1;
b01001 >
b01000 @
1A
1M
1W
#1540000000
0!
0&
0-
06
0;
0A
0M
0W
#1550000000
1!
1&
1-
16
1;
b01000 >
b00111 @
1A
1M
1W
#1560000000
0!
0&
0-
06
0;
0A
0M
0W
#1570000000
1!
1&
1-
16
1;
b00111 >
b00110 @
1A
1M
1W
#1580000000
0!
0&
0-
06
0;
0A
0M
0W
#1590000000
1!
1&
1-
16
1;
b00110 >
b00101 @
1A
1M
1W
#1600000000
0!
0&
0-
06
0;
0A
0M
0W
#1610000000
1!
1&
1-
16
1;
b00101 >
b00100 @
1A
1M
1W
#1620000000
0!
0&
0-
06
0;
0A
0M
0W
#1630000000
1!
1&
1-
16
1;
b00100 >
b00011 @
1A
1M
1W
#1640000000
0!
0&
0-
06
0;
0A
0M
0W
#1650000000
1!
1&
1-
16
1;
b00011 >
b00010 @
1A
1M
1W
#1660000000
0!
0&
0-
06
0;
0A
0M
0W
#1670000000
1!
1&
1-
16
1;
b00010 >
b00001 @
1A
1M
1W
#1680000000
0!
0&
0-
06
0;
0A
0M
0W
#1690000000
1!
1&
1-
16
1;
b00001 >
b00000 @
1A
1M
1W
#1700000000
0!
0&
0-
06
0;
0A
0M
0W
#1710000000
1!
1&
1-
14
16
1;
1=
b00000 >
1?
b11111 @
1A
1C
1M
1W
#1720000000
0!
0&
0-
06
0;
0A
0M
0W
#1730000000
1!
1&
1-
04
16
1;
0=
b11010 >
0?
b11001 @
1A
0C
b0101 I
1M
1W
#1740000000
0!
0&
0-
06
0;
0A
0M
0W
#1750000000
1!
1&
1-
16
1;
b11001 >
b11000 @
1A
1M
1W
#1760000000
0!
0&
0-
06
0;
0A
0M
0W
#1770000000
1!
1&
1-
16
1;
b11000 >
b10111 @
1A
1M
1W
#1780000000
0!
0&
0-
06
0;
0A
0M
0W
#1790000000
1!
1&
1-
16
1;
b10111 >
b10110 @
1A
1M
1W
#1800000000
0!
0&
0-
06
0;
0A
0M
0W
#1810000000
1!
1&
1-
16
1;
b10110 >
b10101 @
1A
1M
1W
#1820000000
0!
0&
0-
06
0;
0A
0M
0W
#1830000000
1!
1&
1-
16
1;
b10101 >
b10100 @
1A
1M
1W
#1840000000
0!
0&
0-
06
0;
0A
0M
0W
#1850000000
1!
1&
1-
16
1;
b10100 >
b10011 @
1A
1M
1W
#1860000000
0!
0&
0-
06
0;
0A
0M
0W
#1870000000
1!
1&
1-
16
1;
b10011 >
b10010 @
1A
1M
1W
#1880000000
0!
0&
0-
06
0;
0A
0M
0W
#1890000000
1!
1&
1-
16
1;
b10010 >
b10001 @
1A
1M
1W
#1900000000
0!
0&
0-
06
0;
0A
0M
0W
#1910000000
1!
1&
1-
16
1;
b10001 >
b10000 @
1A
1M
1W
#1920000000
0!
0&
0-
06
0;
0A
0M
0W
#1930000000
1!
1&
1-
16
1;
b10000 >
b01111 @
1A
1M
1W
#1940000000
0!
0&
0-
06
0;
0A
0M
0W
#1950000000
1!
1&
1-
16
1;
b01111 >
b01110 @
1A
1M
1W
#1960000000
0!
0&
0-
06
0;
0A
0M
0W
#1970000000
1!
1&
1-
16
1;
b01110 >
b01101 @
1A
1M
1W
#1980000000
0!
0&
0-
06
0;
0A
0M
0W
#1990000000
1!
1&
1-
16
1;
b01101 >
b01100 @
1A
1M
1W
#2000000000
0!
0&
0-
06
0;
0A
0M
0W
#2010000000
1!
1&
1-
16
1;
b01100 >
b01011 @
1A
1M
1W
#2020000000
0!
0&
0-
06
0;
0A
0M
0W
#2030000000
1!
1&
1-
16
1;
b01011 >
b01010 @
1A
1M
1W
#2040000000
0!
0&
0-
06
0;
0A
0M
0W
#2050000000
1!
1&
1-
16
1;
b01010 >
b01001 @
1A
1M
1W
#2060000000
0!
0&
0-
06
0;
0A
0M
0W
#2070000000
1!
1&
1-
16
1;
b01001 >
b01000 @
1A
1M
1W
#2080000000
0!
0&
0-
06
0;
0A
0M
0W
#2090000000
1!
1&
1-
16
1;
b01000 >
b00111 @
1A
1M
1W
#2100000000
0!
0&
0-
06
0;
0A
0M
0W
#2110000000
1!
1&
1-
16
1;
b00111 >
b00110 @
1A
1M
1W
#2120000000
0!
0&
0-
06
0;
0A
0M
0W
#2130000000
1!
1&
1-
16
1;
b00110 >
b00101 @
1A
1M
1W
#2140000000
0!
0&
0-
06
0;
0A
0M
0W
#2150000000
1!
1&
1-
16
1;
b00101 >
b00100 @
1A
1M
1W
#2160000000
0!
0&
0-
06
0;
0A
0M
0W
#2170000000
1!
1&
1-
16
1;
b00100 >
b00011 @
1A
1M
1W
#2180000000
0!
0&
0-
06
0;
0A
0M
0W
#2190000000
1!
1&
1-
16
1;
b00011 >
b00010 @
1A
1M
1W
#2200000000
0!
0&
0-
06
0;
0A
0M
0W
#2210000000
1!
1&
1-
16
1;
b00010 >
b00001 @
1A
1M
1W
#2220000000
0!
0&
0-
06
0;
0A
0M
0W
#2230000000
1!
1&
1-
16
1;
b00001 >
b00000 @
1A
1M
1W
#2240000000
0!
0&
0-
06
0;
0A
0M
0W
#2250000000
1!
1&
1-
14
16
1;
1=
b00000 >
1?
b11111 @
1A
1C
1M
1W
#2260000000
0!
0&
0-
06
0;
0A
0M
0W
#2270000000
1!
1&
1-
04
16
1;
0=
b11010 >
0?
b11001 @
1A
0C
b0100 I
1M
1W
#2280000000
0!
0&
0-
06
0;
0A
0M
0W
#2290000000
1!
1&
1-
16
1;
b11001 >
b11000 @
1A
1M
1W
#2300000000
0!
0&
0-
06
0;
0A
0M
0W
#2310000000
1!
1&
1-
16
1;
b11000 >
b10111 @
1A
1M
1W
#2320000000
0!
0&
0-
06
0;
0A
0M
0W
#2330000000
1!
1&
1-
16
1;
b10111 >
b10110 @
1A
1M
1W
#2340000000
0!
0&
0-
06
0;
0A
0M
0W
#2350000000
1!
1&
1-
16
1;
b10110 >
b10101 @
1A
1M
1W
#2360000000
0!
0&
0-
06
0;
0A
0M
0W
#2370000000
1!
1&
1-
16
1;
b10101 >
b10100 @
1A
1M
1W
#2380000000
0!
0&
0-
06
0;
0A
0M
0W
#2390000000
1!
1&
1-
16
1;
b10100 >
b10011 @
1A
1M
1W
#2400000000
0!
0&
0-
06
0;
0A
0M
0W
#2410000000
1!
1&
1-
16
1;
b10011 >
b10010 @
1A
1M
1W
#2420000000
0!
0&
0-
06
0;
0A
0M
0W
#2430000000
1!
1&
1-
16
1;
b10010 >
b10001 @
1A
1M
1W
#2440000000
0!
0&
0-
06
0;
0A
0M
0W
#2450000000
1!
1&
1-
16
1;
b10001 >
b10000 @
1A
1M
1W
#2460000000
0!
0&
0-
06
0;
0A
0M
0W
#2470000000
1!
1&
1-
16
1;
b10000 >
b01111 @
1A
1M
1W
#2480000000
0!
0&
0-
06
0;
0A
0M
0W
#2490000000
1!
1&
1-
16
1;
b01111 >
b01110 @
1A
1M
1W
#2500000000
0!
0&
0-
06
0;
0A
0M
0W
#2510000000
1!
1&
1-
16
1;
b01110 >
b01101 @
1A
1M
1W
#2520000000
0!
0&
0-
06
0;
0A
0M
0W
#2530000000
1!
1&
1-
16
1;
b01101 >
b01100 @
1A
1M
1W
#2540000000
0!
0&
0-
06
0;
0A
0M
0W
#2550000000
1!
1&
1-
16
1;
b01100 >
b01011 @
1A
1M
1W
#2560000000
0!
0&
0-
06
0;
0A
0M
0W
#2570000000
1!
1&
1-
16
1;
b01011 >
b01010 @
1A
1M
1W
#2580000000
0!
0&
0-
06
0;
0A
0M
0W
#2590000000
1!
1&
1-
16
1;
b01010 >
b01001 @
1A
1M
1W
#2600000000
0!
0&
0-
06
0;
0A
0M
0W
#2610000000
1!
1&
1-
16
1;
b01001 >
b01000 @
1A
1M
1W
#2620000000
0!
0&
0-
06
0;
0A
0M
0W
#2630000000
1!
1&
1-
16
1;
b01000 >
b00111 @
1A
1M
1W
#2640000000
0!
0&
0-
06
0;
0A
0M
0W
#2650000000
1!
1&
1-
16
1;
b00111 >
b00110 @
1A
1M
1W
#2660000000
0!
0&
0-
06
0;
0A
0M
0W
#2670000000
1!
1&
1-
16
1;
b00110 >
b00101 @
1A
1M
1W
#2680000000
0!
0&
0-
06
0;
0A
0M
0W
#2690000000
1!
1&
1-
16
1;
b00101 >
b00100 @
1A
1M
1W
#2700000000
0!
0&
0-
06
0;
0A
0M
0W
#2710000000
1!
1&
1-
16
1;
b00100 >
b00011 @
1A
1M
1W
#2720000000
0!
0&
0-
06
0;
0A
0M
0W
#2730000000
1!
1&
1-
16
1;
b00011 >
b00010 @
1A
1M
1W
#2740000000
0!
0&
0-
06
0;
0A
0M
0W
#2750000000
1!
1&
1-
16
1;
b00010 >
b00001 @
1A
1M
1W
#2760000000
0!
0&
0-
06
0;
0A
0M
0W
#2770000000
1!
1&
1-
16
1;
b00001 >
b00000 @
1A
1M
1W
#2780000000
0!
0&
0-
06
0;
0A
0M
0W
#2790000000
1!
1&
1-
14
16
1;
1=
b00000 >
1?
b11111 @
1A
1C
1M
1W
#2800000000
0!
0&
0-
06
0;
0A
0M
0W
#2810000000
1!
1&
1-
04
16
1;
0=
b11010 >
0?
b11001 @
1A
0C
b0011 I
1M
1W
#2820000000
0!
0&
0-
06
0;
0A
0M
0W
#2830000000
1!
1&
1-
16
1;
b11001 >
b11000 @
1A
1M
1W
#2840000000
0!
0&
0-
06
0;
0A
0M
0W
#2850000000
1!
1&
1-
16
1;
b11000 >
b10111 @
1A
1M
1W
#2860000000
0!
0&
0-
06
0;
0A
0M
0W
#2870000000
1!
1&
1-
16
1;
b10111 >
b10110 @
1A
1M
1W
#2880000000
0!
0&
0-
06
0;
0A
0M
0W
#2890000000
1!
1&
1-
16
1;
b10110 >
b10101 @
1A
1M
1W
#2900000000
0!
0&
0-
06
0;
0A
0M
0W
#2910000000
1!
1&
1-
16
1;
b10101 >
b10100 @
1A
1M
1W
#2920000000
0!
0&
0-
06
0;
0A
0M
0W
#2930000000
1!
1&
1-
16
1;
b10100 >
b10011 @
1A
1M
1W
#2940000000
0!
0&
0-
06
0;
0A
0M
0W
#2950000000
1!
1&
1-
16
1;
b10011 >
b10010 @
1A
1M
1W
#2960000000
0!
0&
0-
06
0;
0A
0M
0W
#2970000000
1!
1&
1-
16
1;
b10010 >
b10001 @
1A
1M
1W
#2980000000
0!
0&
0-
06
0;
0A
0M
0W
#2990000000
1!
1&
1-
16
1;
b10001 >
b10000 @
1A
1M
1W
#3000000000
0!
0&
0-
06
0;
0A
0M
0W
#3010000000
1!
1&
1-
16
1;
b10000 >
b01111 @
1A
1M
1W
#3020000000
0!
0&
0-
06
0;
0A
0M
0W
#3030000000
1!
1&
1-
16
1;
b01111 >
b01110 @
1A
1M
1W
#3040000000
0!
0&
0-
06
0;
0A
0M
0W
#3050000000
1!
1&
1-
16
1;
b01110 >
b01101 @
1A
1M
1W
#3060000000
0!
0&
0-
06
0;
0A
0M
0W
#3070000000
1!
1&
1-
16
1;
b01101 >
b01100 @
1A
1M
1W
#3080000000
0!
0&
0-
06
0;
0A
0M
0W
#3090000000
1!
1&
1-
16
1;
b01100 >
b01011 @
1A
1M
1W
#3100000000
0!
0&
0-
06
0;
0A
0M
0W
#3110000000
1!
1&
1-
16
1;
b01011 >
b01010 @
1A
1M
1W
#3120000000
0!
0&
0-
06
0;
0A
0M
0W
#3130000000
1!
1&
1-
16
1;
b01010 >
b01001 @
1A
1M
1W
#3140000000
0!
0&
0-
06
0;
0A
0M
0W
#3150000000
1!
1&
1-
16
1;
b01001 >
b01000 @
1A
1M
1W
#3160000000
0!
0&
0-
06
0;
0A
0M
0W
#3170000000
1!
1&
1-
16
1;
b01000 >
b00111 @
1A
1M
1W
#3180000000
0!
0&
0-
06
0;
0A
0M
0W
#3190000000
1!
1&
1-
16
1;
b00111 >
b00110 @
1A
1M
1W
#3200000000
0!
0&
0-
06
0;
0A
0M
0W
#3210000000
1!
1&
1-
16
1;
b00110 >
b00101 @
1A
1M
1W
#3220000000
0!
0&
0-
06
0;
0A
0M
0W
#3230000000
1!
1&
1-
16
1;
b00101 >
b00100 @
1A
1M
1W
#3240000000
0!
0&
0-
06
0;
0A
0M
0W
#3250000000
1!
1&
1-
16
1;
b00100 >
b00011 @
1A
1M
1W
#3260000000
0!
0&
0-
06
0;
0A
0M
0W
#3270000000
1!
1&
1-
16
1;
b00011 >
b00010 @
1A
1M
1W
#3280000000
0!
0&
0-
06
0;
0A
0M
0W
#3290000000
1!
1&
1-
16
1;
b00010 >
b00001 @
1A
1M
1W
#3300000000
0!
0&
0-
06
0;
0A
0M
0W
#3310000000
1!
1&
1-
16
1;
b00001 >
b00000 @
1A
1M
1W
#3320000000
0!
0&
0-
06
0;
0A
0M
0W
#3330000000
1!
1&
1-
14
16
1;
1=
b00000 >
1?
b11111 @
1A
1C
1M
1W
#3340000000
0!
0&
0-
06
0;
0A
0M
0W
#3350000000
1!
1&
1-
04
16
1;
0=
b11010 >
0?
b11001 @
1A
0C
b0010 I
1M
1W
#3360000000
0!
0&
0-
06
0;
0A
0M
0W
#3370000000
1!
1&
1-
16
1;
b11001 >
b11000 @
1A
1M
1W
#3380000000
0!
0&
0-
06
0;
0A
0M
0W
#3390000000
1!
1&
1-
16
1;
b11000 >
b10111 @
1A
1M
1W
#3400000000
0!
0&
0-
06
0;
0A
0M
0W
#3410000000
1!
1&
1-
16
1;
b10111 >
b10110 @
1A
1M
1W
#3420000000
0!
0&
0-
06
0;
0A
0M
0W
#3430000000
1!
1&
1-
16
1;
b10110 >
b10101 @
1A
1M
1W
#3440000000
0!
0&
0-
06
0;
0A
0M
0W
#3450000000
1!
1&
1-
16
1;
b10101 >
b10100 @
1A
1M
1W
#3460000000
0!
0&
0-
06
0;
0A
0M
0W
#3470000000
1!
1&
1-
16
1;
b10100 >
b10011 @
1A
1M
1W
#3480000000
0!
0&
0-
06
0;
0A
0M
0W
#3490000000
1!
1&
1-
16
1;
b10011 >
b10010 @
1A
1M
1W
#3500000000
0!
0&
0-
06
0;
0A
0M
0W
#3510000000
1!
1&
1-
16
1;
b10010 >
b10001 @
1A
1M
1W
#3520000000
0!
0&
0-
06
0;
0A
0M
0W
#3530000000
1!
1&
1-
16
1;
b10001 >
b10000 @
1A
1M
1W
#3540000000
0!
0&
0-
06
0;
0A
0M
0W
#3550000000
1!
1&
1-
16
1;
b10000 >
b01111 @
1A
1M
1W
#3560000000
0!
0&
0-
06
0;
0A
0M
0W
#3570000000
1!
1&
1-
16
1;
b01111 >
b01110 @
1A
1M
1W
#3580000000
0!
0&
0-
06
0;
0A
0M
0W
#3590000000
1!
1&
1-
16
1;
b01110 >
b01101 @
1A
1M
1W
#3600000000
0!
0&
0-
06
0;
0A
0M
0W
#3610000000
1!
1&
1-
16
1;
b01101 >
b01100 @
1A
1M
1W
#3620000000
0!
0&
0-
06
0;
0A
0M
0W
#3630000000
1!
1&
1-
16
1;
b01100 >
b01011 @
1A
1M
1W
#3640000000
0!
0&
0-
06
0;
0A
0M
0W
#3650000000
1!
1&
1-
16
1;
b01011 >
b01010 @
1A
1M
1W
#3660000000
0!
0&
0-
06
0;
0A
0M
0W
#3670000000
1!
1&
1-
16
1;
b01010 >
b01001 @
1A
1M
1W
#3680000000
0!
0&
0-
06
0;
0A
0M
0W
#3690000000
1!
1&
1-
16
1;
b01001 >
b01000 @
1A
1M
1W
#3700000000
0!
0&
0-
06
0;
0A
0M
0W
#3710000000
1!
1&
1-
16
1;
b01000 >
b00111 @
1A
1M
1W
#3720000000
0!
0&
0-
06
0;
0A
0M
0W
#3730000000
1!
1&
1-
16
1;
b00111 >
b00110 @
1A
1M
1W
#3740000000
0!
0&
0-
06
0;
0A
0M
0W
#3750000000
1!
1&
1-
16
1;
b00110 >
b00101 @
1A
1M
1W
#3760000000
0!
0&
0-
06
0;
0A
0M
0W
